<?xml version="1.0" encoding="UTF-8"?>
<svg width="14px" height="14px" viewBox="0 0 14 14" version="1.1" xmlns="http://www.w3.org/2000/svg" xmlns:xlink="http://www.w3.org/1999/xlink">
    <!-- Generator: Sketch 41.1 (35376) - http://www.bohemiancoding.com/sketch -->
    <title>icon-kudo-filled</title>
    <desc>Created with Sketch.</desc>
    <defs></defs>
    <g id="Desktop" stroke="none" stroke-width="1" fill="none" fill-rule="evenodd">
        <g id="D---Topic" transform="translate(-391.000000, -951.000000)" fill="#37A000">
            <g id="Post-and-replies" transform="translate(361.000000, 100.000000)">
                <g id="D---Post">
                    <g id="post-footer" transform="translate(30.000000, 816.000000)">
                        <g id="Group" transform="translate(0.000000, 31.000000)">
                            <path d="M6.51,7.22 C6.58,6.94 6.79,5.89 6.51,4.98 C6.51,4.98 6.78413067,4 7.48413076,4 C8.18413086,4 9.08736382,4.91382021 9.24091539,5.50163374 C9.41885026,6.18278943 9.39512281,7.10004113 9.1693,8.34 C9.24,8.48 9.7993,8.83 12.04,8.76 C12.11,8.76 13.65,8.9 13.86,10.16 C14,11.28 12.04,15.27 11.1307,15.8307 C10.5007,16.2507 9.66,15.97 8.96,15.76 C8.61,15.62 8.3307,15.55 8.05,15.55 L7,15.55 L4.9,9.18 C5.39,8.69 6.02,8.06 6.51,7.22 Z M4.06,8.83 L0,10.09 L2.45,18 L6.65,16.67 L6.3,15.6907 L4.06,8.83 L4.06,8.83 Z" id="icon-kudo-filled"></path>
                        </g>
                    </g>
                </g>
            </g>
        </g>
    </g>
</svg>